Final_Jiaquan
…
In [6]:

print(as.tibble(train), n = 10)

Warning message:
"`as.tibble()` was deprecated in tibble 2.0.0.
Please use `as_tibble()` instead.
The signature and semantics have changed, see `?as_tibble`.
This warning is displayed once every 8 hours.
Call `lifecycle::last_warnings()` to see where this warning was generated."

# A tibble: 9,662 x 10
   Country.Name   Year      GDP    Import    Export  Consume  CAPITAL GOV_INVEST
   <chr>         <int>    <dbl>     <dbl>     <dbl>    <dbl>    <dbl>      <dbl>
 1 Uzbekistan     1995  1.34e10  NA        NA        5.87e 9  3.23e 9    4.27e 9
 2 Hungary        2009  1.31e11   9.20e10   9.73e10  7.01e10  2.65e10    2.89e10
 3 Kiribati       1969 NA        NA        NA       NA       NA         NA      
 4 Puerto Rico    2005  8.39e10   3.89e10   5.65e10  4.71e10  1.22e10    1.01e10
 5 Cameroon       1973  1.76e 9   4.22e 8   3.64e 8  1.26e 9  3.50e 8    2.03e 8
 6 Tonga          2016  4.21e 8   2.71e 8   1.08e 8 NA       NA         NA      
 7 American Sam~  2019 NA        NA        NA       NA       NA         NA      
 8 French Polyn~  2009 NA        NA        NA       NA       NA         NA      
 9 Brazil         1985  2.23e11   1.58e10   2.73e10  1.47e11  4.28e10    2.20e10
10 North America  1981  3.51e12   3.97e11   3.87e11  2.10e12  8.57e11    5.73e11
# ... with 9,652 more rows, and 2 more variables: Net_Export <dbl>, id <int>
…
From the testing dataset, we can see the RMSE score is even smaller than the validation dataset. So we can assume this model is a successful prediction of the GDP. And for a better view of the difference between prediction and real value, I create the following data

In [22]:

pre_linear5 <- function(a, data) {
    preds <- a[1] + data$x1 * a[2]+ data$x2 * a[3]+ data$x3 * a[4]+ data$x4 * a[5]+ data$x5 * a[6]  # get predictions
    transmute(data, GDP = data$y, Model_Predict = preds, diff = GDP - Model_Predict)
}

In [23]:

as.tibble(pre_linear5(Linear_model$coef, data = transmute(na.omit(test), x1 = Consume, x2 = CAPITAL, x3 = GOV_INVEST, x4 = Export, x5 = Import, y = GDP))) %>%
print(n = 10)

# A tibble: 1,896 x 3
       GDP Model_Predict          diff
     <dbl>         <dbl>         <dbl>
 1 1.21e 9      -8.16e 8   2026131879.
 2 5.51e11       5.56e11  -5490793454.
 3 9.98e10       9.48e10   4960952038.
 4 2.52e12       2.57e12 -50487385991.
 5 9.59e10       9.49e10   1038268670.
 6 1.32e10       1.14e10   1825100875.
 7 5.64e 9       3.72e 9   1914966877.
 8 4.83e10       4.67e10   1532412854.
 9 8.34e 9       6.60e 9   1741415163.
10 3.65e11       3.71e11  -6772749378.
# ... with 1,886 more rows
…
In [24]:

pre_linear5_billion <- function(a, data) {
    preds <- a[1] + data$x1 * a[2]+ data$x2 * a[3]+ data$x3 * a[4]+ data$x4 * a[5]+ data$x5 * a[6]  # get predictions
    transmute(data, GDP = data$y / 1000000000, Model_Predict = preds / 1000000000, diff = GDP - Model_Predict)
}

In [25]:

as.tibble(pre_linear5_billion(Linear_model$coef, data = transmute(na.omit(test), x1 = Consume, x2 = CAPITAL, x3 = GOV_INVEST, x4 = Export, x5 = Import, y = GDP))) %T>%
print(n = 10)%>%
summary()

# A tibble: 1,896 x 3
       GDP Model_Predict   diff
     <dbl>         <dbl>  <dbl>
 1    1.21        -0.816   2.03
 2  551.         556.     -5.49
 3   99.8         94.8     4.96
 4 2516.        2567.    -50.5 
 5   95.9         94.9     1.04
 6   13.2         11.4     1.83
 7    5.64         3.72    1.91
 8   48.3         46.7     1.53
 9    8.34         6.60    1.74
10  365.         371.     -6.77
# ... with 1,886 more rows
…
